{
	"info": {
		"_postman_id": "4141d935-9006-4e73-86c2-09aa9a4f0aab",
		"name": "Ecommerce Mart",
		"schema": "https://schema.getpostman.com/json/collection/v2.1.0/collection.json"
	},
	"item": [
		{
			"name": "User",
			"item": [
				{
					"name": "Create User",
					"request": {
						"method": "POST",
						"header": [
							{
								"key": "Content-Type",
								"value": "application/json",
								"type": "text"
							},
							{
								"key": "Authorization",
								"value": "{{authtoken}}",
								"type": "text"
							},
							{
								"key": "api-authorization",
								"value": "{{apiauthtoken}}",
								"type": "text"
							}
						],
						"body": {
							"mode": "raw",
							"raw": "{\r\n    \"firstName\":\"Sanjay\",\r\n    \"lastName\":\"Parmar\",\r\n    \"email\":\"parmarsanjay4369@gmail.com\",\r\n    \"mobile\":\"9376666901\"\r\n}"
						},
						"url": {
							"raw": "{{baseurl}}user/create",
							"host": [
								"{{baseurl}}user"
							],
							"path": [
								"create"
							]
						}
					},
					"response": []
				},
				{
					"name": "Update User",
					"request": {
						"method": "PUT",
						"header": [
							{
								"key": "Content-Type",
								"value": "application/json",
								"type": "text"
							},
							{
								"key": "Authorization",
								"value": "{{authtoken}}",
								"type": "text"
							},
							{
								"key": "api-authorization",
								"value": "{{apiauthtoken}}",
								"type": "text"
							}
						],
						"body": {
							"mode": "raw",
							"raw": "{\r\n    \"firstName\":\"Sanjay\",\r\n    \"lastName\":\"Parmar\",\r\n    \"email\":\"info.sanjayparmar1987@gmail.com\",\r\n    \"mobile\":\"9376666901\"\r\n}"
						},
						"url": {
							"raw": "{{baseurl}}user/update/4",
							"host": [
								"{{baseurl}}user"
							],
							"path": [
								"update",
								"4"
							]
						}
					},
					"response": []
				},
				{
					"name": "Get User With Pagination",
					"request": {
						"method": "POST",
						"header": [
							{
								"key": "Content-Type",
								"value": "application/json",
								"type": "text"
							},
							{
								"key": "Authorization",
								"value": "{{authtoken}}",
								"type": "text"
							},
							{
								"key": "api-authorization",
								"value": "{{apiauthtoken}}",
								"type": "text"
							}
						],
						"body": {
							"mode": "raw",
							"raw": "{\r\n    \"pageNumber\":1,\r\n    \"pageSize\":10,\r\n    \"keyword\":\"\",\r\n    \"status\":1,\r\n    \"sortColumn\":\"createdAt\",\r\n    \"sortOrder\":\"DESC\"\r\n}"
						},
						"url": {
							"raw": "{{baseurl}}user/pagination",
							"host": [
								"{{baseurl}}user"
							],
							"path": [
								"pagination"
							]
						}
					},
					"response": []
				},
				{
					"name": "Get All User",
					"protocolProfileBehavior": {
						"disableBodyPruning": true
					},
					"request": {
						"method": "GET",
						"header": [
							{
								"key": "Content-Type",
								"value": "application/json",
								"type": "text"
							},
							{
								"key": "Authorization",
								"value": "{{authtoken}}",
								"type": "text"
							},
							{
								"key": "api-authorization",
								"value": "{{apiauthtoken}}",
								"type": "text"
							}
						],
						"body": {
							"mode": "raw",
							"raw": ""
						},
						"url": {
							"raw": "{{baseurl}}user/all",
							"host": [
								"{{baseurl}}user"
							],
							"path": [
								"all"
							]
						}
					},
					"response": []
				},
				{
					"name": "Get All Active User",
					"protocolProfileBehavior": {
						"disableBodyPruning": true
					},
					"request": {
						"method": "GET",
						"header": [
							{
								"key": "Content-Type",
								"value": "application/json",
								"type": "text"
							},
							{
								"key": "Authorization",
								"value": "{{authtoken}}",
								"type": "text"
							},
							{
								"key": "api-authorization",
								"value": "{{apiauthtoken}}",
								"type": "text"
							}
						],
						"body": {
							"mode": "raw",
							"raw": ""
						},
						"url": {
							"raw": "{{baseurl}}user/active-all",
							"host": [
								"{{baseurl}}user"
							],
							"path": [
								"active-all"
							]
						}
					},
					"response": []
				},
				{
					"name": "Delete User",
					"request": {
						"method": "DELETE",
						"header": [
							{
								"key": "Content-Type",
								"value": "application/json",
								"type": "text"
							},
							{
								"key": "Authorization",
								"value": "{{authtoken}}",
								"type": "text"
							},
							{
								"key": "api-authorization",
								"value": "{{apiauthtoken}}",
								"type": "text"
							}
						],
						"body": {
							"mode": "raw",
							"raw": ""
						},
						"url": {
							"raw": "{{baseurl}}user/delete/4",
							"host": [
								"{{baseurl}}user"
							],
							"path": [
								"delete",
								"4"
							]
						}
					},
					"response": []
				},
				{
					"name": "Active User",
					"request": {
						"method": "PUT",
						"header": [
							{
								"key": "Content-Type",
								"value": "application/json",
								"type": "text"
							},
							{
								"key": "Authorization",
								"value": "{{authtoken}}",
								"type": "text"
							},
							{
								"key": "api-authorization",
								"value": "{{apiauthtoken}}",
								"type": "text"
							}
						],
						"body": {
							"mode": "raw",
							"raw": ""
						},
						"url": {
							"raw": "{{baseurl}}user/active/4",
							"host": [
								"{{baseurl}}user"
							],
							"path": [
								"active",
								"4"
							]
						}
					},
					"response": []
				},
				{
					"name": "Inactive User",
					"request": {
						"method": "PUT",
						"header": [
							{
								"key": "Content-Type",
								"value": "application/json",
								"type": "text"
							},
							{
								"key": "Authorization",
								"value": "{{authtoken}}",
								"type": "text"
							},
							{
								"key": "api-authorization",
								"value": "{{apiauthtoken}}",
								"type": "text"
							}
						],
						"body": {
							"mode": "raw",
							"raw": ""
						},
						"url": {
							"raw": "{{baseurl}}user/inactive/4",
							"host": [
								"{{baseurl}}user"
							],
							"path": [
								"inactive",
								"4"
							]
						}
					},
					"response": []
				},
				{
					"name": "Get User Detail",
					"protocolProfileBehavior": {
						"disableBodyPruning": true
					},
					"request": {
						"method": "GET",
						"header": [
							{
								"key": "Content-Type",
								"value": "application/json",
								"type": "text"
							},
							{
								"key": "Authorization",
								"value": "{{authtoken}}",
								"type": "text"
							},
							{
								"key": "api-authorization",
								"value": "{{apiauthtoken}}",
								"type": "text"
							}
						],
						"body": {
							"mode": "raw",
							"raw": ""
						},
						"url": {
							"raw": "{{baseurl}}user/detail/1",
							"host": [
								"{{baseurl}}user"
							],
							"path": [
								"detail",
								"1"
							]
						}
					},
					"response": []
				}
			]
		},
		{
			"name": "Upload",
			"item": [
				{
					"name": "Upload Single File",
					"request": {
						"method": "POST",
						"header": [
							{
								"key": "Content-Type",
								"value": "application/json",
								"type": "text"
							},
							{
								"key": "Authorization",
								"value": "{{authtoken}}",
								"type": "text",
								"disabled": true
							},
							{
								"key": "api-authorization",
								"value": "{{apiauthtoken}}",
								"type": "text"
							}
						],
						"body": {
							"mode": "formdata",
							"formdata": [
								{
									"key": "file",
									"type": "file",
									"src": "/D:/Data/Sagai/IMG-20220612-WA0011.jpg"
								}
							]
						},
						"url": {
							"raw": "{{baseurl}}file/single-upload?location=profile",
							"host": [
								"{{baseurl}}file"
							],
							"path": [
								"single-upload"
							],
							"query": [
								{
									"key": "location",
									"value": "profile"
								}
							]
						}
					},
					"response": []
				},
				{
					"name": "Upload Multiple File",
					"request": {
						"method": "POST",
						"header": [
							{
								"key": "Content-Type",
								"value": "application/json",
								"type": "text"
							},
							{
								"key": "Authorization",
								"value": "{{authtoken}}",
								"type": "text",
								"disabled": true
							},
							{
								"key": "api-authorization",
								"value": "{{apiauthtoken}}",
								"type": "text"
							}
						],
						"body": {
							"mode": "formdata",
							"formdata": [
								{
									"key": "files",
									"type": "file",
									"src": "/D:/gre_research_validity_data.pdf"
								},
								{
									"key": "files",
									"type": "file",
									"src": "/D:/gre_research_validity_data.pdf"
								}
							]
						},
						"url": {
							"raw": "{{baseurl}}file/multiple-upload?location=data",
							"host": [
								"{{baseurl}}file"
							],
							"path": [
								"multiple-upload"
							],
							"query": [
								{
									"key": "location",
									"value": "data"
								}
							]
						}
					},
					"response": []
				},
				{
					"name": "Download File",
					"protocolProfileBehavior": {
						"disableBodyPruning": true
					},
					"request": {
						"method": "GET",
						"header": [
							{
								"key": "Content-Type",
								"value": "application/json",
								"type": "text"
							},
							{
								"key": "Authorization",
								"value": "{{authtoken}}",
								"type": "text",
								"disabled": true
							},
							{
								"key": "api-authorization",
								"value": "{{apiauthtoken}}",
								"type": "text"
							}
						],
						"body": {
							"mode": "formdata",
							"formdata": []
						},
						"url": {
							"raw": "{{baseurl}}file/download?path=data/data-1664874421566.pdf",
							"host": [
								"{{baseurl}}file"
							],
							"path": [
								"download"
							],
							"query": [
								{
									"key": "path",
									"value": "data/data-1664874421566.pdf"
								}
							]
						}
					},
					"response": []
				}
			]
		},
		{
			"name": "Auth",
			"item": [
				{
					"name": "Login User",
					"request": {
						"method": "POST",
						"header": [
							{
								"key": "Content-Type",
								"value": "application/json",
								"type": "text"
							},
							{
								"key": "api-authorization",
								"value": "{{apiauthtoken}}",
								"type": "text"
							}
						],
						"body": {
							"mode": "raw",
							"raw": "{\r\n    \"email\":\"sanjay.mscit7@gmail.com\",\r\n    \"password\":\"FEKS0OOI\"\r\n}"
						},
						"url": {
							"raw": "{{baseurl}}auth/login-user",
							"host": [
								"{{baseurl}}auth"
							],
							"path": [
								"login-user"
							]
						}
					},
					"response": []
				},
				{
					"name": "Forget User Password",
					"request": {
						"method": "POST",
						"header": [
							{
								"key": "Content-Type",
								"value": "application/json",
								"type": "text"
							},
							{
								"key": "api-authorization",
								"value": "{{apiauthtoken}}",
								"type": "text"
							}
						],
						"body": {
							"mode": "raw",
							"raw": "{\r\n    \"email\":\"sanjay.mscit7@gmail.com\"\r\n}"
						},
						"url": {
							"raw": "{{baseurl}}auth/forget-user-password",
							"host": [
								"{{baseurl}}auth"
							],
							"path": [
								"forget-user-password"
							]
						}
					},
					"response": []
				},
				{
					"name": "Change User Password",
					"request": {
						"method": "PUT",
						"header": [
							{
								"key": "Content-Type",
								"value": "application/json",
								"type": "text"
							},
							{
								"key": "Authorization",
								"value": "{{authtoken}}",
								"type": "text"
							},
							{
								"key": "api-authorization",
								"value": "{{apiauthtoken}}",
								"type": "text"
							}
						],
						"body": {
							"mode": "raw",
							"raw": "{\r\n    \"oldPassword\":\"RekiV9Di\",\r\n    \"newPassword\":\"Test@123\"\r\n}"
						},
						"url": {
							"raw": "{{baseurl}}auth/change-user-password",
							"host": [
								"{{baseurl}}auth"
							],
							"path": [
								"change-user-password"
							]
						}
					},
					"response": []
				},
				{
					"name": "Update User Profile",
					"request": {
						"method": "PUT",
						"header": [
							{
								"key": "Content-Type",
								"value": "application/json",
								"type": "text"
							},
							{
								"key": "Authorization",
								"value": "{{authtoken}}",
								"type": "text"
							},
							{
								"key": "api-authorization",
								"value": "{{apiauthtoken}}",
								"type": "text"
							}
						],
						"body": {
							"mode": "raw",
							"raw": "{\r\n    \"firstName\":\"Sandhya\",\r\n    \"lastName\":\"Parmar\",\r\n    \"email\":\"sanjay.mscit7@gmail.com\",\r\n    \"mobile\":\"9376666901\"\r\n}"
						},
						"url": {
							"raw": "{{baseurl}}auth/update-user-profile",
							"host": [
								"{{baseurl}}auth"
							],
							"path": [
								"update-user-profile"
							]
						}
					},
					"response": []
				}
			]
		},
		{
			"name": "Order",
			"item": [
				{
					"name": "Create Order",
					"request": {
						"method": "POST",
						"header": [
							{
								"key": "Content-Type",
								"value": "application/json",
								"type": "text"
							},
							{
								"key": "Authorization",
								"value": "{{authtoken}}",
								"type": "text"
							},
							{
								"key": "api-authorization",
								"value": "{{apiauthtoken}}",
								"type": "text"
							}
						],
						"body": {
							"mode": "raw",
							"raw": "{\r\n    \"firstName\":\"Sanjay\",\r\n    \"lastName\":\"Parmar\",\r\n    \"email\":\"parmarsanjay4369@gmail.com\",\r\n    \"mobile\":\"9376666901\",\r\n    \"address\":\"c 712 shrimad afford, nikol\",\r\n    \"city\":\"ahmedabad\",\r\n    \"pincode\":\"382350\",\r\n    \"cardType\":\"Credit Card\",\r\n    \"nameOnCard\":\"Sanjay Parmar\",\r\n    \"cardData\":\"374245455400126\",\r\n    \"expiryData\":\"05/2026\",\r\n    \"cvvData\":\"123\",\r\n    \"subTotal\":\"2000.00\",\r\n    \"saved\":null,\r\n    \"total\":2000.00,\r\n    \"cashOnDeliveryStatus\":1,\r\n    \"products\":[\r\n        {\r\n            \"productId\":null,\r\n            \"productName\":\"Basmati Rice 5kg+Fortune Rice Bran5L - 2 pc\",\r\n            \"price\":\"1000.00\",\r\n            \"discount\":null,\r\n            \"quantity\":\"1\",\r\n            \"total\":\"1000.00\"\r\n        },\r\n        {\r\n            \"productId\":null,\r\n            \"productName\":\"Basmati Rice 5kg+Fortune Rice Bran5L - 2 pc\",\r\n            \"price\":\"1000.00\",\r\n            \"discount\":null,\r\n            \"quantity\":\"1\",\r\n            \"total\":\"1000.00\"\r\n        }\r\n    ]\r\n}"
						},
						"url": {
							"raw": "{{baseurl}}order/create",
							"host": [
								"{{baseurl}}order"
							],
							"path": [
								"create"
							]
						}
					},
					"response": []
				},
				{
					"name": "Get Order With Pagination",
					"request": {
						"method": "POST",
						"header": [
							{
								"key": "Content-Type",
								"value": "application/json",
								"type": "text"
							},
							{
								"key": "Authorization",
								"value": "{{authtoken}}",
								"type": "text"
							},
							{
								"key": "api-authorization",
								"value": "{{apiauthtoken}}",
								"type": "text"
							}
						],
						"body": {
							"mode": "raw",
							"raw": "{\r\n    \"pageNumber\":1,\r\n    \"pageSize\":10,\r\n    \"keyword\":\"\",\r\n    \"status\":1,\r\n    \"sortColumn\":\"createdAt\",\r\n    \"sortOrder\":\"DESC\",\r\n    \"mobile\":\"9376666901\",\r\n    \"email\":null\r\n}"
						},
						"url": {
							"raw": "{{baseurl}}order/pagination",
							"host": [
								"{{baseurl}}order"
							],
							"path": [
								"pagination"
							]
						}
					},
					"response": []
				}
			]
		},
		{
			"name": "Test",
			"request": {
				"method": "GET",
				"header": [
					{
						"key": "api-authorization",
						"value": "{{apiauthtoken}}",
						"type": "default"
					}
				],
				"url": {
					"raw": "{{baseurl}}",
					"host": [
						"{{baseurl}}"
					]
				}
			},
			"response": []
		}
	],
	"event": [
		{
			"listen": "prerequest",
			"script": {
				"type": "text/javascript",
				"exec": [
					""
				]
			}
		},
		{
			"listen": "test",
			"script": {
				"type": "text/javascript",
				"exec": [
					""
				]
			}
		}
	],
	"variable": [
		{
			"key": "baseurl",
			"value": "http://localhost:3000/api/v1/",
			"type": "default"
		},
		{
			"key": "apiauthtoken",
			"value": "3Uy7NIHilkOWviGXMRIl2ZUE4L7Mc8ub4VhosE3l8t8",
			"type": "default"
		},
		{
			"key": "authtoken",
			"value": "eyJhbGciOiJIUzI1NiIsInR5cCI6IkpXVCJ9.eyJfaWQiOjQsImlhdCI6MTY2MjcwNzYxOCwiZXhwIjoxNjYyNzExMjE4fQ.tmDa-Js-Flmrj9aH9iZw-Le7aZhC2syTRljVh2xQwoU",
			"type": "default"
		}
	]
}